module user_account_iam_api

go 1.18

require (
	github.com/aws/aws-lambda-go v1.34.1
	github.com/aws/aws-sdk-go v1.44.91
	github.com/golang-jwt/jwt/v4 v4.4.2
	golang.org/x/crypto v0.0.0-20220829220503-c86fa9a7ed90
	gorm.io/driver/postgres v1.3.9
	gorm.io/gorm v1.23.8
)

require (
	github.com/jackc/chunkreader/v2 v2.0.1 // indirect
	github.com/jackc/pgconn v1.12.1 // indirect
	github.com/jackc/pgio v1.0.0 // indirect
	github.com/jackc/pgpassfile v1.0.0 // indirect
	github.com/jackc/pgproto3/v2 v2.3.0 // indirect
	github.com/jackc/pgservicefile v0.0.0-20200714003250-2b9c44734f2b // indirect
	github.com/jackc/pgtype v1.11.0 // indirect
	github.com/jackc/pgx/v4 v4.16.1 // indirect
	github.com/jinzhu/inflection v1.0.0 // indirect
	github.com/jinzhu/now v1.1.4 // indirect
	github.com/jmespath/go-jmespath v0.4.0 // indirect
	golang.org/x/text v0.3.7 // indirect
)
